{
  "project_info": {
    "project_number": "840884156255",
    "firebase_url": "https://courcera-ns.firebaseio.com",
    "project_id": "courcera-ns",
    "storage_bucket": "courcera-ns.appspot.com"
  },
  "client": [
    {
      "client_info": {
        "mobilesdk_app_id": "1:840884156255:android:a50c86202b2f5449e368ea",
        "android_client_info": {
          "package_name": "org.nativescript.mydrawerng"
        }
      },
      "oauth_client": [
        {
          "client_id": "840884156255-nfau3csm7vuils4qg3bmr5qk8rvgttt2.apps.googleusercontent.com",
          "client_type": 3
        }
      ],
      "api_key": [
        {
          "current_key": "AIzaSyBqXEIb1B-nkeEmUHCtVaGAuMA0jXF2FzU"
        }
      ],
      "services": {
        "appinvite_service": {
          "other_platform_oauth_client": [
            {
              "client_id": "840884156255-nfau3csm7vuils4qg3bmr5qk8rvgttt2.apps.googleusercontent.com",
              "client_type": 3
            }
          ]
        }
      }
    }
  ],
  "configuration_version": "1"
}